{
  "name": "OZMT-ozmt",
  "version": "0.1.0",
  "author": "Chip Schweiss",
  "summary": "Puppet module for installing OZMT",
  "license": "GPLv2",
  "source": "https://bitbucket.org/ozmt/puppet_module_ozmt",
  "project_page": null,
  "issues_url": null,
  "dependencies": [
    {"name":"puppetlabs-stdlib","version_requirement":">= 1.0.0"}
  ],
  "data_provider": null
}

